{
    "config-version" : "LHO ER13 DQ configuration $Id: H-DQmod-ER13.json 7729 2016-09-09 23:09:32Z john.zweizig@LIGO.ORG $",
    "stride" : 1.0,
    "flag_step" : 0.0625,
    "write_path" : "/online/LHO_DQGATE",
    "compression" : "zero-suppress-or-gzip",
    "dq_flags" : [
	{
	    "name" : "H1:DMT-ETMY_ESD_DAC_OVERFLOW",
	    "channel" : "H1:DMT-DQ_VECTOR",
	    "bit" :  2,
	    "class" : "DQ_OvflCount",
	    "library" : "/usr/lib64/libdqplugins.so",
            "invert" : true,
	    "inputs" : [
                "0/H1:FEC-98_DAC_OVERFLOW_ACC_3_1",
                "0/H1:FEC-98_DAC_OVERFLOW_ACC_3_2",
                "0/H1:FEC-98_DAC_OVERFLOW_ACC_3_3",
                "0/H1:FEC-98_DAC_OVERFLOW_ACC_3_4"
	    ],
	    "parameters" : {
		"print" : true
	    }
	},
        {
            "name" : "H1:DMT-OMC_DCPD_ADC_OVERFLOW",
            "channel" : "H1:DMT-DQ_VECTOR",
            "bit" :  1,
            "class" : "DQ_OvflCount",
            "library" : "/usr/lib64/libdqplugins.so",
            "invert" : true,
            "inputs" : [
                "0/H1:FEC-8_ADC_OVERFLOW_ACC_0_12",
                "0/H1:FEC-8_ADC_OVERFLOW_ACC_0_13"
            ],
            "parameters" : {
                "print" : true
            }
        }
    ],
    "filters" : [
        {"name"     : "strain-gate",
         "type"     : "GateGen",
         "rate"     : 16384,
         "transit"  : 0.25,
         "front"    : 0.375,
         "idle"     : 1.0,
         "active"   : 0.0,
         "mode"     : "&~",
         "bit-mask" : 6
        },
        {"name"     : "dqvec-gate",
         "type"     : "GateGen",
         "rate"     : 16,
         "transit"  : 0.25,
         "front"    : 0.375,
         "window"   : "rectangle",
         "idle"     : 0,
         "active"   : 9,
         "mode"     : "&~",
         "bit-mask" : 6
        },
        {"name" : "xor",
         "type" : "logic_2op",
         "rate" : 16,
         "opcode" : "A^B"
        },
        {"name"   : "xor9",
         "type"   : "MathOp",
         "opcode" : "^",
         "value"  : 9
        }
    ],
    "processed-channels" : [
        {"name"    : "H1:GDS-STRAIN_GATE",
         "filter"  : "strain-gate",
         "x-input" : "H1:DMT-DQ_VECTOR"
        },
        {"name"    : "H-DQVECT_TEMP_1",
         "filter"  : "dqvec-gate",
         "x-input" : "H1:DMT-DQ_VECTOR",
         "mode"    : "nowrite"
        },
        {"name"    : "H-DQVECT_TEMP_2",
         "filter"  : "xor9",
         "x-input" : "H1:DMT-DQ_VECTOR",
         "mode"    : "nowrite"
        },
        {"name"    : "H1:DMT-DQ_VECTOR_GATED",
	 "filter"  : "xor",
	 "x-input" : "H-DQVECT_TEMP_1",
         "y-input" : "H-DQVECT_TEMP_2"
	}
    ],
    "copy_channels" : [
        "H1:DMT-DQ_VECTOR"
    ]
}
