1 2.88289 1.78946e-28
2 1.61199 6.68024e-27
3 347.416 3.35443e-28
4 373.303 9.12164e-29
5 565.558 6.01675e-28
6 762.317 5.65256e-28
7 495.003 3.68209e-28
8 622.987 8.61768e-29
9 573.889 4.13599e-28
10 952.094 2.46127e-28
11 460.176 6.04146e-28
12 543.974 3.68569e-28
13 654.889 3.05076e-28
14 756.618 3.86302e-28
15 548.995 0
16 495.886 3.31059e-28
17 574.636 0
18 706.612 7.44042e-28
19 263.557 7.09267e-28
20 460.53 5.33819e-28
21 415.8 0
22 850.216 0
23 411.061 3.5528e-27
24 2.121 1.64718e-26
25 1065.43 9.45255e-28
26 1.78855 6.45527e-27
27 2.15918 6.94153e-28
28 1.64326 6.81163e-27
29 5.63806 2.69371e-27
30 0.94555 1.59489e-26
31 4.23696 4.78672e-26
32 2.7098 2.66476e-27
33 0.367656 inf
34 1.19107 1.38549e-26
35 1.55805 3.4832e-26
36 1.86721 1.4747e-27
37 2.47658 4.28198e-26
38 6.13717 2.77286e-26
39 19.7163 6.3963e-26
40 4.31524 3.78985e-27
41 14.6026 7.66017e-27
42 4.82195 0
43 7.34078 3.9107e-26
44 1.63539 5.36489e-27
45 0.230194 inf
46 10.1874 1.07926e-26
47 1.3655 5.13377e-27
48 2.40171 2.85028e-26
49 1.10402 1.07518e-27
50 0.850432 1.00347e-25
51 30.4477 3.06075e-25
52 3.17183 2.82514e-26
53 1.85644 5.11072e-27
54 3.64378 6.20636e-27
55 860.922 5.62376e-28
56 1.36349 1.16631e-26
57 9.21659 nan
58 4.46719 4.09821e-27
59 1.44135 1.83312e-26
60 0.659614 5.5389e-27
61 2.23889 0
62 2.79908 2.8791e-26
63 7.42941 1.43175e-27
64 1.03387 1.91457e-26
65 10.1507 5.9276e-27
66 12.7892 4.61736e-26
67 3.66802 2.01835e-26
68 3.36375 1.81022e-26
69 5.11882 5.08359e-27
70 3.05623 0
71 0.925366 4.28017e-27
72 6.12972 0
73 347.376 1.2842e-26
74 4.44002 3.60416e-27
75 4.56606 2.66838e-27
76 3.64339 1.85828e-26
77 5.86976 6.01986e-26
78 6.24175 2.05984e-27
79 1.76511 1.54019e-26
80 3.13202 2.99405e-26
81 2.8933 2.10877e-27
82 8.2767 1.83318e-27
83 5.64274 1.06954e-27
84 0.24854 inf
85 0.533972 2.58478e-26
86 2.04976 1.4547e-27
87 2.07681 1.10309e-27
88 60.4509 1.01874e-24
89 9.97456 4.0818e-26
90 1.60532 1.16715e-26
91 124.11 2.05742e-26
92 13.9705 5.15653e-26
93 39.7187 3.55862e-26
94 1.55519 5.35055e-27
95 8.13092 4.03183e-26
96 0.884422 7.83718e-27
97 5.0509 4.33515e-27
98 1.41634 0
99 6.71181 5.40411e-27
100 653.201 4.60188e-28
101 5.97086 5.06629e-26
102 69.3148 3.88281e-28
103 1.92479 3.76508e-27
104 4.01287 0
105 4.19619 7.89798e-27
106 1.60718 2.00585e-26
107 6.94993 5.24846e-26
108 8.4355 7.66398e-25
109 59.0729 nan
110 1.64685 9.46033e-27
111 5.19627 7.43033e-25
112 10.2212 2.22178e-27
113 1.64732 4.3292e-27
114 364.234 9.02854e-28
115 4.71352 1.79973e-27
116 3.92034 3.38088e-26
117 7.94727 8.75195e-26
118 6.24285 1.73186e-26
119 5.33447 3.39326e-27
120 11.9931 9.57864e-26
121 9.30941 8.99928e-27
122 1.82573 7.21315e-27
123 574.916 4.22061e-28
124 1.38663 3.97878e-27
125 2.93141 7.46403e-27
126 3.65498 3.36519e-27
127 1.5477 1.51214e-26
128 1.61534 9.59239e-27
129 3.66673 1.40982e-27
130 2.31248 4.35253e-27
131 3.76889 8.98618e-26
132 1.08171 2.4501e-26
133 6.41697 2.86873e-27
134 16.513 1.12016e-26
135 5.1996 0
136 22.3893 2.32545e-24
137 3.6941 3.27366e-26
138 1.57014 5.78424e-26
139 2.66091 9.22507e-27
140 1.17375 1.51649e-27
141 2.77542 3.50397e-27
142 3.10388 7.95337e-27
143 9.57141 2.12894e-27
144 1.79196 1.51012e-26
145 1.24826 2.81495e-27
146 5.43547 3.16467e-27
147 1.57786 3.32649e-26
148 30.9185 1.92939e-26
149 3.47782 3.09404e-27
150 2.0779 3.64337e-27
151 6.12043 2.33298e-26
152 4.52494 3.39966e-26
153 3.02886 1.6342e-27
154 2.07217 5.72854e-27
155 3.63932 3.75156e-27
156 2.02372 2.5362e-27
157 5.77555 1.82374e-26
158 7.8878 1.82751e-26
159 4.97976 3.69421e-26
160 18.7346 3.26787e-26
161 1.46747 2.22759e-27
162 1.27552 3.46165e-26
163 4.64447 8.47865e-26
164 2.10462 1.7609e-26
165 2.6799 2.21532e-26
166 2.70453 2.42378e-26
167 2.62506 0
168 1.0354 1.68866e-27
169 1.3843 1.1134e-26
170 3.50625 3.86828e-27
171 22.8453 8.17977e-26
172 3.03694 4.20121e-27
173 3.01038 1.66489e-26
174 2.47486 2.4896e-26
175 1.83922 2.96408e-27
176 3.75296 0
177 3.50715 7.3601e-27
178 6.03163 2.53825e-26
179 1.82198 3.28107e-26
180 2.35004 0
181 1.4558 1.38764e-27
182 7.9031 6.60608e-26
183 4.22981 2.80161e-26
184 2.31987 7.4757e-27
185 9.82527 7.96384e-27
186 2.98469 2.13009e-27
187 7.82237 1.49875e-26
188 1.39219 3.01132e-26
189 1.20397 3.29249e-27
190 2.57234 1.47117e-27
191 6.51314 4.4426e-26
192 2.39292 1.60483e-27
193 0.794298 8.26341e-27
194 2.43929 8.25621e-27
195 380.536 1.9792e-27
196 0.937386 1.41797e-26
197 4.51569 1.7874e-27
198 14.2978 7.49563e-26
199 2.59881 1.14061e-26
200 22.7702 1.09981e-26
201 18.6255 5.30502e-26
202 3.97252 3.81544e-27
203 1.10822 5.41583e-27
204 12.3078 6.67838e-27
205 1.61511 3.93285e-26
206 121.559 1.54329e-27
207 1.21675 5.65119e-27
208 387.431 3.08539e-27
209 6.52718 1.44971e-27
210 4.30841 6.27665e-27
211 1.73824 1.72381e-27
212 3.45079 2.14286e-27
213 3.91874 3.71905e-27
214 3.02118 1.01976e-26
215 1.44262 4.67943e-27
216 1.70815 6.2191e-27
217 6.92997 5.94613e-27
218 267.586 2.70411e-28
219 5.41379 6.60802e-27
220 6.05459 1.87108e-27
221 10.078 1.12541e-26
222 16.172 1.68808e-25
223 0.309978 inf
224 0.908132 2.62255e-27
225 11.0747 1.39929e-26
226 5.7652 9.07016e-27
227 4.45796 6.22111e-27
228 0.685072 3.99434e-27
229 4.73432 3.84218e-27
230 2.95822 9.44714e-28
231 10.1467 6.40804e-26
232 1.48434 5.16983e-27
233 3.18319 0
234 3.24533 2.61766e-27
235 1.68777 1.2531e-26
236 5.04303 4.17052e-27
237 7.11984 2.06451e-26
238 31.6491 4.03461e-26
239 1.3188 2.41065e-27
240 1.11148 1.22249e-26
241 3.58261 3.7755e-27
242 5.98421 1.4657e-27
243 2.43759 2.72242e-27
244 30.7873 1.32223e-26
245 2.27061 4.34601e-27
246 1.20741 4.09479e-26
247 7.69892 1.4071e-26
248 2.12054 1.9531e-26
249 3.95963 4.00846e-27
250 1.73119 3.02916e-28
251 0.876964 1.5043e-26
252 4.90502 5.96714e-26
253 3.73285 2.65472e-27
254 8.16865 1.0659e-27
255 3.12386 3.88177e-27
256 7.36827 1.05167e-26
257 8.58456 1.77962e-26
258 10.7782 1.6722e-28
259 14.7804 2.48018e-25
260 4.17451 1.37614e-27
261 9.865 2.63736e-27
262 3.45175 2.07868e-26
263 3.87609 8.77307e-29
264 12.3211 5.96799e-28
265 2.93693 2.57337e-27
266 7.80175 3.38057e-27
267 11.4177 5.27236e-28
268 1.95527 3.99399e-28
269 1.68362 8.87687e-26
270 5.48388 3.29023e-26
271 3.59573 3.31399e-28
272 17.012 7.57951e-27
273 3.71449 1.26438e-26
274 6.86183 5.91883e-27
275 5.07746 1.86263e-26
276 3.58177 6.22996e-28
277 2.96013 1.71204e-27
278 2.02474 1.6532e-27
279 2.3511 1.22207e-26
280 7.31603 1.76257e-26
281 0.617088 1.81374e-27
282 5.3111 3.63367e-26
283 7.0919 1.23194e-26
284 1.92691 2.03978e-27
285 4.99348 5.94478e-27
286 45.8829 5.49147e-28
287 2.99632 5.66829e-28
288 3.80899 9.57688e-27
289 3.3776 1.47226e-27
290 4.41696 7.87474e-27
291 6.47541 2.67009e-27
292 4.71554 inf
293 7.1488 2.49219e-27
294 4.61804 1.1288e-27
295 2.19823 9.04107e-28
296 3.14261 6.8165e-28
297 5.34692 4.02874e-27
298 2.53417 4.11985e-28
299 1.84986 3.16664e-27
300 9.23889 3.76515e-26
301 3.41436 4.47711e-27
302 4.76624 1.09266e-27
303 1.96376 4.75964e-27
304 3.19324 1.97465e-27
305 1.06769 0
306 1.48013 1.51384e-27
307 22.6547 1.72714e-28
308 3.54133 3.0796e-27
309 2.64239 1.35998e-27
310 3.13365 0
311 7.78884 5.83682e-28
312 6.78519 1.5798e-27
313 0.94743 2.29193e-27
314 1.78796 1.15752e-26
315 1.53621 1.82807e-26
316 1.44671 1.74656e-26
317 3.9044 9.25074e-27
318 5.14826 5.02868e-27
319 4.24426 3.8683e-28
320 7.26725 4.04654e-27
321 0.876004 2.69454e-27
322 4.22092 0
323 10.0839 6.93952e-27
324 4.60358 3.53489e-28
325 2.42913 5.94746e-28
326 7.8279 1.75743e-26
327 10.84 1.47982e-26
328 3.03964 6.03829e-27
329 3.23988 6.22366e-27
330 3.01509 8.9029e-27
331 321.619 3.17273e-27
332 10.8385 4.32656e-26
333 3.01282 8.06883e-26
334 41.8742 2.70481e-26
335 6.14016 0
336 2.06644 1.64286e-27
337 0.867062 1.287e-27
338 3.49866 1.59579e-27
339 4.6755 6.49026e-27
340 4.18208 1.26301e-27
341 4.22809 2.19678e-27
342 2.03686 1.94583e-27
343 0.403028 2.57394e-27
344 3.22865 2.26295e-27
345 5.02144 1.94303e-28
346 4.4691 4.55026e-27
347 2.74667 8.42053e-28
348 2.35506 6.92195e-27
349 60.3079 0
350 0.820536 4.31815e-27
351 2.3559 2.24325e-26
352 0.678336 3.74041e-27
353 5.83387 2.36175e-27
354 7.6549 3.76136e-28
355 7.03355 3.30413e-27
356 4.74926 2.28711e-27
357 7.14977 2.4513e-26
358 4.36216 1.24772e-27
359 2.98491 2.15175e-26
360 3.95211 2.04675e-27
361 0.723534 1.20288e-27
362 2.36936 1.54476e-27
363 0.805216 1.026e-27
364 3.68318 6.53925e-27
365 4.18418 5.00645e-27
366 2.52312 2.24448e-27
367 3.77425 1.62811e-26
368 10.1792 7.73707e-27
369 7.1256 6.3328e-27
370 3.75447 1.87216e-26
371 1.35252 1.48813e-27
372 1.27778 1.03445e-26
373 3.07487 1.92265e-26
374 18.567 2.07464e-27
375 5.01012 0
376 1.61422 7.39562e-27
377 3.58308 1.87282e-27
378 5.28231 3.41145e-26
379 10.3445 7.62774e-26
380 3.18834 1.42817e-26
381 3.703 7.0932e-28
382 1.59606 4.94552e-27
383 3.27889 1.32795e-26
384 2.1557 4.45214e-27
385 7.7112 1.37675e-26
386 6.76363 6.36191e-27
387 3.18014 1.7731e-27
388 0.67752 7.18061e-27
389 3.10414 5.82106e-27
390 1.64829 4.7493e-27
391 7.23058 2.40033e-28
392 4.38819 1.48856e-26
393 3.94182 2.45972e-27
394 2.19065 0
395 15.6862 2.15041e-26
396 2.37307 3.08856e-26
397 1.44909 0
398 5.01039 1.3939e-27
399 3.06232 2.46134e-27
400 6.93603 3.89882e-27
401 9.38638 3.17041e-26
402 4.0622 4.70482e-27
403 2.85057 6.56438e-27
404 7.17542 1.30365e-27
405 3.7796 5.75918e-27
406 6.34468 3.42154e-26
407 5.06399 2.12507e-26
408 7.0022 5.59864e-26
409 6.83977 1.79404e-27
410 0.431948 3.20857e-27
411 5.0958 0
412 6.76635 1.19914e-26
413 1.82348 3.22026e-27
414 1.19575 7.79319e-28
415 2.13727 1.85143e-27
416 29.3342 8.18619e-26
417 5.45354 5.8004e-27
418 1.95407 1.05034e-27
419 5.99853 0
420 5.66151 3.08104e-27
421 2.82539 1.70727e-27
422 3.98621 1.76342e-27
423 3.50698 1.5034e-26
424 2.61809 1.26972e-26
425 2.54634 1.88033e-26
426 6.5281 7.80641e-27
427 2.07609 3.22478e-27
428 213.95 2.83746e-28
429 4.35156 6.9827e-27
430 1.70091 2.2464e-27
431 0.724578 7.10534e-27
432 4.31658 1.63831e-27
433 5.17297 3.6599e-26
434 12.9039 5.84025e-27
435 11.143 3.83171e-26
436 44.2001 7.29502e-28
437 250.4 1.343e-27
438 7.59368 2.44701e-26
439 1.14397 2.28882e-26
440 1.33455 6.62869e-27
441 5.1185 8.92804e-27
442 2.55445 1.24426e-27
443 2.99354 1.08967e-26
444 2.375 2.89416e-27
445 4.84279 1.67825e-26
446 2.37886 2.97098e-26
447 5.62343 5.78485e-27
448 6.97455 2.38181e-26
449 2.70386 2.41518e-26
450 22.4917 4.80488e-26
451 5.89904 3.30751e-27
452 2.11893 3.43375e-27
453 9.98085 1.25144e-26
454 6.63327 2.71171e-27
455 15.5407 1.0356e-26
456 0.980136 2.6451e-27
457 13.2751 4.13725e-25
458 2.05453 9.74453e-27
459 4.39716 1.61662e-26
460 13.4412 1.76305e-26
461 6.97724 8.05617e-27
462 3.07297 2.33592e-27
463 360.127 2.21803e-28
464 251.669 5.27115e-29
465 48.858 6.65147e-28
466 5.05877 9.07829e-27
467 1.43926 1.4697e-26
468 25.5694 1.04745e-25
469 1.79204 1.4921e-26
470 1.97688 1.19909e-26
471 7.13397 1.71269e-27
472 6.62498 1.78681e-27
473 1.90711 8.36288e-27
474 0.827272 2.51871e-26
475 3.79827 2.62066e-27
476 2.244 2.21757e-27
477 2.43235 1.06762e-26
478 7.16957 5.05844e-26
479 5.60461 1.20819e-27
480 23.7525 7.42763e-26
481 1.77804 1.53115e-26
482 4.50628 1.55016e-27
483 1.46105 1.62806e-26
484 6.90396 9.76612e-27
485 4.62037 1.97389e-26
486 3.52899 1.95815e-26
487 6.51089 1.71226e-26
488 4.26967 0
489 2.26902 7.13503e-27
490 52.7643 5.06298e-27
491 6.63762 0
492 1.30879 1.13256e-26
493 4.64615 1.86265e-27
494 7.22736 1.13594e-26
495 2.36972 4.04594e-27
496 3.94813 2.15378e-27
497 8.21719 2.00641e-26
498 1.99013 2.24285e-27
499 3.26309 1.82794e-27
500 1.22639 0
501 6.76047 3.84772e-26
502 3.33753 1.68054e-26
503 1.65622 2.40326e-26
504 2.82062 1.74548e-26
505 2.67219 5.56967e-27
506 3.10436 1.0574e-26
507 5.30337 3.3498e-26
508 11.2011 8.1471e-27
509 3.44329 1.33194e-26
510 8.25797 3.92671e-27
511 13.7311 3.55286e-28
512 3.31819 1.20069e-26
513 11.7004 2.05529e-26
514 1.58419 0
515 6.93609 8.18752e-26
516 4.0179 1.89041e-27
517 2.66788 1.31592e-26
518 1.40734 1.73031e-27
519 1.84958 1.55469e-26
520 0.58513 6.76558e-27
521 3.75532 4.46266e-27
522 3.86019 1.02403e-27
523 2.0107 8.3815e-27
524 6.07558 2.39699e-27
525 3.36375 6.32099e-27
526 2.08933 1.65422e-26
527 7.7804 2.2713e-26
528 10.2852 1.11586e-26
529 10.3841 1.63288e-26
530 0.781446 1.86069e-27
531 6.93345 6.56067e-26
532 2.31421 4.24501e-26
533 2.43905 1.16365e-26
534 2.56966 1.3738e-26
535 7.06539 9.30484e-27
536 14.0936 4.40375e-27
537 4.03163 5.02226e-27
538 134.753 3.56784e-28
539 6.10841 8.85929e-27
540 5.85818 3.49258e-27
541 3.03945 9.06646e-27
542 1.97315 5.52492e-27
543 4.7414 2.60225e-26
544 5.83562 6.99609e-27
545 1.56323 4.50726e-27
546 1.96388 2.20124e-27
547 4.15698 1.45555e-26
548 2.54302 4.98011e-27
549 10.9594 2.87115e-26
550 1.5422 4.08474e-27
551 3.00103 1.84275e-27
552 4.13813 2.77429e-27
553 5.23045 5.94221e-27
554 4.37157 1.90333e-26
555 3.05241 5.76774e-27
556 8.63208 1.15069e-25
557 1.65727 1.66906e-26
558 4.91048 1.11332e-27
559 1.30377 4.15252e-27
560 3.49289 5.82824e-28
561 2.52677 8.02421e-27
562 0.807244 7.66697e-27
563 5.54082 2.07559e-27
564 1.63989 3.75862e-27
565 1.94964 1.29654e-26
566 0.583352 6.59944e-27
567 28.8364 1.23158e-25
568 166.843 0
569 9.82546 1.64898e-26
570 1.84498 1.28068e-26
571 5.37744 3.33784e-27
572 2.18117 2.83005e-27
573 7.54511 3.2333e-27
574 1.86399 8.41238e-27
575 1.56685 6.63997e-27
576 180.575 2.46458e-27
577 5.48561 1.38112e-27
578 2.75584 3.6507e-26
579 4.45709 8.96926e-27
580 0.849156 1.50915e-27
581 4.34462 1.36988e-26
582 5.40334 1.57575e-26
583 6.80438 1.35603e-26
584 4.07451 5.67886e-27
585 3.26621 6.40731e-27
586 5.67433 4.60835e-27
587 2.30955 1.92786e-27
588 0.48338 2.59635e-27
589 333.3 5.4103e-28
590 3.47239 1.71705e-26
591 3.57736 1.35478e-26
592 1.17017 1.4276e-26
593 2.45866 5.96843e-26
594 5.67952 8.42037e-27
595 4.58183 5.66193e-27
596 2.81361 1.5755e-26
597 3.77985 3.99202e-27
598 4.07742 3.91623e-27
599 1.25412 3.89173e-27
600 2.97635 7.36695e-27
601 1.66024 1.14447e-26
602 4.6472 3.02136e-27
603 16.8391 2.43829e-26
604 2.5928 1.3016e-27
605 12.9847 6.12397e-26
606 1.71565 5.92194e-27
607 1.78262 5.28606e-28
608 7.19069 4.19296e-26
609 5.87367 1.03051e-26
610 7.55978 1.28346e-26
611 3.40391 5.50673e-28
612 3.86545 2.24079e-26
613 632.248 4.52802e-28
614 11.2138 6.28185e-27
615 2.706 1.13666e-27
616 192.724 0
617 566.882 0
618 1.83317 2.63048e-27
619 432.747 2.34596e-28
620 1.48379 7.21851e-27
621 2.78743 1.98129e-26
622 4.39503 2.25977e-26
623 5.15876 1.32765e-26
624 4.86783 2.45198e-27
625 1.12006 9.77104e-27
626 8.63545 5.79748e-26
627 2.37903 5.94819e-28
628 2.77988 7.53399e-27
629 3.17646 3.12756e-27
630 12.1249 3.78745e-26
631 1.96994 4.76177e-27
632 2.29697 7.28536e-28
633 3.59054 3.0253e-26
634 6.71835 6.66267e-27
635 3.25961 2.13109e-27
636 1.14315 1.13414e-26
637 6.47422 9.01892e-28
638 6.46416 5.16133e-28
639 5.25114 2.29942e-26
640 3.14933 4.76484e-27
641 2.24584 4.58768e-27
642 2.05467 1.96525e-26
643 2.36944 5.96914e-27
644 3.86516 9.83713e-27
645 1.17389 7.91643e-27
646 2.18387 5.18274e-27
647 6.55657 1.06392e-26
648 3.265 8.95948e-27
649 4.77008 6.646e-28
650 0.6537 1.3911e-27
651 2.52582 2.03249e-27
652 1.56993 1.11804e-27
653 3.68368 5.46172e-28
654 3.2808 1.18513e-26
655 1.71461 1.13841e-26
656 3.12033 3.64898e-27
657 4.21602 1.36472e-27
658 5.66102 5.22324e-28
659 1.47242 5.95258e-27
660 3.45803 1.69371e-27
661 6.1937 1.31441e-27
662 0.814794 4.91681e-27
663 381.565 6.94818e-28
664 556.506 1.39957e-27
665 525.427 4.04118e-28
666 585.138 0
667 618.429 0
668 871.46 0
669 6.8648 1.74389e-27
670 5.1239 1.83054e-27
671 10.9808 5.89924e-26
672 8.31518 1.01064e-25
673 0.941838 3.1872e-27
674 2.48651 1.28998e-26
675 1.65046 4.01817e-27
676 1.14463 9.65661e-27
677 1.43225 7.63961e-27
678 6.52906 1.64378e-26
679 6.68924 5.68281e-26
680 7.83005 9.86476e-27
681 2.3406 1.01176e-26
682 6.27074 6.43715e-26
683 2.3227 9.64078e-27
684 3.4113 3.34216e-27
685 3.2416 4.35818e-27
686 5.52605 0
687 3.44224 6.40786e-27
688 2.24569 5.70507e-27
689 7.50543 4.09898e-27
690 1.67923 1.12654e-26
691 2.8897 9.29307e-27
692 1.63161 2.72053e-27
693 0.181834 inf
694 3.06253 4.41242e-26
695 19.52 2.98347e-25
696 431.872 0
697 4.46571 4.52055e-27
698 3.40724 1.27546e-26
699 1.15214 2.22893e-27
700 6.97931 1.55846e-27
701 2.22416 1.76457e-26
702 2.30201 6.90738e-27
703 4.29771 1.38348e-26
704 7.83209 1.28901e-26
705 437.624 7.01895e-28
706 1.24991 2.91993e-26
707 5.10204 0
708 2.56533 1.28239e-27
709 7.18182 4.36867e-26
710 0.96518 4.70222e-27
711 3.17302 1.01736e-26
712 2.25299 0
713 3.04739 3.13663e-27
714 2.93075 7.95703e-27
715 1.73989 1.59918e-27
716 5.02693 1.1067e-26
717 5.71545 3.5326e-27
718 6.21517 1.58837e-27
719 26.7845 5.6565e-26
720 10.5767 8.52381e-27
721 8.49346 2.46909e-27
722 1.27746 1.97069e-26
723 3.22348 1.38219e-26
724 4.18659 1.38706e-27
725 1.23788 3.3051e-27
726 5.69598 1.07599e-27
727 1.99196 1.97624e-27
728 7.13206 2.68599e-26
729 4.95001 2.18903e-27
730 571.979 4.74645e-28
731 4.19149 6.59606e-27
732 5.01023 1.13742e-26
733 8.46836 4.86842e-26
734 9.86573 2.64652e-26
735 1.63705 6.23793e-27
736 1.9371 6.73536e-27
737 0.96975 1.34058e-26
738 1.36512 5.18244e-27
739 1.80159 5.98538e-26
740 6.95818 5.48167e-27
741 5.1813 1.25986e-26
742 3.24919 1.24782e-27
743 14.341 1.04605e-25
744 246.221 1.76291e-27
745 2.41014 5.08233e-26
746 3.18481 1.37426e-26
747 4.1342 4.99985e-27
748 0.91575 2.24281e-27
749 376.467 5.07577e-28
750 2.29441 2.67754e-27
751 5.92442 3.48767e-26
752 1.60525 5.19191e-27
753 2.38267 2.38156e-27
754 1.71085 1.0756e-25
755 4.76946 7.10146e-27
756 5.6986 1.3947e-26
757 2.00151 0
758 3.9777 1.17098e-26
759 5.03037 3.14322e-26
760 2.60189 2.82935e-26
761 4.44018 5.38033e-26
762 2.60248 1.23867e-26
763 4.51062 6.26398e-26
764 6.19421 2.79132e-26
765 3.77757 1.39053e-26
766 1.64515 2.31324e-27
767 17.4874 5.27784e-26
768 8.35711 7.80175e-27
769 2.27904 1.76154e-27
770 2.4905 5.07948e-27
771 3.29671 1.52297e-25
772 12.9797 1.56433e-25
773 3.50687 1.10874e-26
774 547.896 1.20474e-27
775 3.90464 7.36842e-27
776 0.978914 5.43385e-27
777 1.46979 1.04289e-26
778 0.512228 1.83954e-26
779 2.23975 2.20005e-27
780 8.94623 6.515e-27
781 1.05611 7.82521e-27
782 4.84965 1.03403e-27
783 4.49797 2.12066e-26
784 4.93417 4.03356e-27
785 0.828302 3.49299e-26
786 10.357 1.66057e-26
787 6.53238 6.17394e-27
788 490.852 2.34533e-27
789 1.13817 1.0534e-26
790 1.188 5.17419e-27
791 1.87607 2.20921e-26
792 5.44323 4.66946e-26
793 1.91313 1.92894e-27
794 103.219 5.30266e-28
795 1.89009 3.76752e-27
796 0.719404 1.4113e-27
797 20.2403 1.80385e-25
798 172.963 1.37666e-28
799 5.07442 8.68635e-27
800 6.92994 3.65969e-27
801 4.51632 2.32311e-27
802 237.077 1.05943e-27
803 1.50115 8.54669e-27
804 3.27937 7.15491e-27
805 1.49769 3.8693e-27
806 2.19693 1.89036e-27
807 2.80586 9.81138e-27
808 2.92392 8.39057e-28
809 2.69414 2.30796e-26
810 5.0654 6.25255e-27
811 3.64814 7.83286e-27
812 3.55519 4.47867e-26
813 4.88937 8.08546e-27
814 3.12388 5.5052e-27
815 3.78547 9.15227e-27
816 0.836332 4.09477e-27
817 1.70073 3.83147e-26
818 7.63491 1.45786e-27
819 2.98294 2.36824e-27
820 2.68817 0
821 8.54334 3.8146e-26
822 10.7927 9.00874e-27
823 225.48 7.21714e-28
824 2.11136 5.88563e-27
825 4.64815 2.36148e-27
826 0.949098 4.02076e-27
827 1.66266 7.48552e-27
828 4.33864 2.47296e-26
829 7.85175 2.08332e-27
830 0.703386 1.03751e-26
831 2.46695 5.52398e-27
832 3.57853 4.17477e-27
833 2.09085 3.09568e-26
834 3.48189 2.66508e-26
835 1.9402 0
836 16.0097 1.25112e-25
837 2.1704 4.79128e-27
838 4.81005 2.20154e-26
839 1.84859 9.61628e-27
840 0.78416 4.04441e-28
841 1.80387 2.98428e-27
842 3.6084 4.00003e-27
843 3.88597 3.61542e-27
844 3.51489 5.76482e-27
845 14.9681 1.4493e-25
846 5.98059 1.1263e-27
847 0.698242 7.05469e-27
848 86.5769 8.2681e-28
849 3.50563 1.69436e-27
850 214.063 1.01916e-27
851 9.14446 7.70566e-27
852 4.39898 3.93352e-27
853 4.92891 6.90659e-27
854 5.58961 4.31129e-27
855 3.82688 8.313e-27
856 4.1298 0
857 2.27327 2.46821e-28
858 4.15119 2.85553e-26
859 12.2154 2.09959e-27
860 2.41611 7.17673e-27
861 4.30756 0
862 653.713 0
863 2.17768 1.05733e-26
864 4.70461 0
865 2.28299 4.14027e-27
866 0.266852 3.2657e-25
867 5.48077 1.56571e-26
868 2.84733 8.0855e-27
869 6.37175 7.04168e-28
870 2.23392 3.6308e-27
871 24.1701 8.5344e-26
872 4.5997 6.75975e-27
873 2.32453 5.17014e-28
874 7.66139 1.09163e-26
875 13.011 1.8794e-27
876 60.9343 3.02658e-28
877 4.3317 1.49815e-26
878 2.16229 2.4863e-27
879 19.1972 3.9882e-28
880 3.58768 6.48141e-27
881 30.9277 inf
882 1.65925 1.70733e-26
883 3.71512 3.85289e-27
884 2.5192 6.23066e-27
885 1.63485 8.28186e-27
886 2.14802 6.90336e-27
887 4.6897 4.55011e-27
888 2.66219 5.91553e-27
889 2.08885 4.81878e-27
890 0.503038 2.52485e-26
891 1.6001 1.26303e-26
892 2.55652 8.47648e-27
893 3.37333 1.67097e-27
894 5.16773 1.09641e-26
895 3.1976 0
896 5.20174 4.23383e-27
897 6.86133 5.88458e-27
898 2.12836 3.7754e-27
899 3.62888 9.16497e-27
900 1.88615 2.37903e-27
901 1.11826 1.74257e-27
902 8.8285 5.98176e-28
903 2.17047 4.13408e-27
904 6.4536 1.17516e-27
905 3.34406 2.39372e-26
906 1.4634 3.10518e-27
907 1.06708 4.46751e-27
908 9.31224 4.76687e-27
909 1.46755 6.75827e-27
910 1.11919 0
911 4.38105 5.1623e-27
912 7.14723 0
913 367.647 1.77745e-27
914 5.28267 6.56873e-28
915 7.04091 3.48579e-26
916 2.65637 3.28631e-27
917 2.63235 4.82371e-27
918 3.24093 6.38199e-27
919 1.2219 1.12001e-27
920 4.58969 6.41114e-27
921 10.5633 1.82186e-26
922 654.811 2.26232e-27
923 5.51736 1.1402e-26
924 5.56492 3.11263e-27
925 8.9558 0
926 2.56756 8.45872e-27
927 2.60083 1.48631e-25
928 7.16366 2.98107e-26
929 0.955504 5.71649e-27
930 19.7111 1.18996e-25
931 5.2346 2.79391e-27
932 8.13812 5.9198e-27
933 3.90207 1.51419e-26
934 2.69673 5.43104e-27
935 27.7579 3.55968e-26
936 2.32468 2.42583e-27
937 6.51184 1.39585e-26
938 6.28139 1.28269e-26
939 4.93774 6.12948e-26
940 0.321464 1.1455e-26
941 0.699804 4.52676e-27
942 0.923498 3.26713e-27
943 3.08979 3.77022e-26
944 6.05411 9.99733e-27
945 2.68711 1.44426e-26
946 10.0351 0
947 1.05852 3.68312e-27
948 23.451 3.29673e-26
949 2.91246 2.76591e-26
950 4.13686 1.56252e-26
951 3.15636 1.94725e-27
952 3.83911 0
953 6.89398 3.90288e-27
954 1.70544 0
955 4.09909 5.28668e-27
956 5.58182 1.84736e-27
957 6.53958 3.21901e-26
958 2.32777 1.35866e-26
959 6.6127 3.10255e-26
960 12.0549 6.52288e-26
961 5.64595 8.44935e-27
962 3.55422 1.53126e-26
963 1.04942 2.32728e-27
964 1.01857 5.25058e-27
965 3.2413 1.16788e-26
966 9.94715 1.45863e-26
967 20.7697 6.30722e-26
968 1.06609 1.05863e-26
969 3.23437 1.76746e-26
970 1.05152 0
971 5.25168 3.79381e-26
972 1.64156 6.58842e-27
973 8.37599 1.91383e-26
974 3.83922 1.47697e-26
975 3.41694 9.33544e-27
976 4.12445 4.0313e-27
977 4.44891 7.82813e-27
978 1.21002 1.00836e-26
979 10.7442 2.04264e-26
980 5.24495 1.2233e-26
981 9.80065 7.31512e-26
982 0.169986 inf
983 1.08699 2.28407e-27
984 4.24085 2.12927e-27
985 1.89712 7.01299e-27
986 3.79736 2.82348e-26
987 5.80311 1.34221e-26
988 0.5871 0
989 2.55559 1.31602e-27
990 15.1156 5.73484e-27
991 2.64914 3.11791e-27
992 2.01811 1.28867e-26
993 7.82169 1.79667e-26
994 5.32675 1.8049e-26
995 3.93916 1.72789e-26
996 4.34308 0
997 7.32601 0
998 3.80917 8.9624e-27
999 4.10888 1.886e-26
1000 0.286892 nan
1001 9.63225 1.8031e-26
1002 19.1032 5.76606e-27
1003 6.18051 inf
1004 3.34577 5.37305e-26
1005 2.0877 1.28994e-26
1006 2.57015 9.59453e-27
1007 3.03291 1.33878e-26
1008 0.464232 4.41009e-26
1009 3.95292 0
1010 6.08523 4.86671e-27
1011 2.64995 0
1012 6.7166 8.93125e-28
1013 1.37806 2.76456e-26
1014 3.68898 2.85158e-26
1015 0.901306 0
1016 7.27273 0
1017 2.99219 5.4464e-26
1018 5.78734 1.1931e-26
1019 1.8487 2.43276e-27
1020 7.025 1.11226e-26
1021 1.65933 1.59218e-26
1022 0.91735 1.19969e-26
1023 1.50813 7.42797e-28
1024 5.94641 4.07276e-27
1025 7.25748 4.15671e-26
1026 15.8228 8.30895e-27
1027 1.7443 6.56546e-27
1028 3.4892 2.30075e-27
1029 1.19182 1.36177e-27
1030 5.79037 3.07915e-27
1031 7.47832 1.52456e-25
1032 4.75905 7.67157e-28
1033 5.60336 2.68031e-27
1034 4.80974 2.05543e-26
1035 372.988 1.14236e-27
1036 3.16966 5.66347e-27
1037 5.71508 7.01231e-27
1038 0.542414 8.37633e-27
1039 2.68158 3.59711e-27
1040 3.57376 0
1041 2.14139 7.7632e-27
1042 1.56349 5.6171e-27
1043 3.26686 5.20921e-27
1044 5.34386 1.62906e-26
1045 3.32101 0
1046 6.93916 1.74161e-26
1047 3.05134 7.55307e-27
1048 3.1056 6.18754e-27
1049 2.57181 0
1050 0.75101 1.83391e-26
1051 1.09238 1.36586e-27
1052 1.12238 7.14216e-27
1053 1.02205 9.20384e-27
1054 2.67889 1.91444e-26
1055 2.96956 6.33161e-27
1056 4.09993 3.55152e-27
1057 2.74234 9.63378e-27
1058 4.63084 5.76863e-27
1059 3.07132 1.89536e-27
1060 1.07726 1.72449e-27
1061 14.3344 2.57851e-27
1062 28.1314 1.76799e-28
1063 7.59461 1.58876e-26
1064 2.6638 3.18364e-27
1065 3.10954 5.68203e-27
1066 3.08623 9.9962e-27
1067 2.0208 3.97459e-26
1068 7.48293 5.52062e-27
1069 2.5795 1.32229e-27
1070 1.96253 7.31711e-28
1071 2.41809 3.853e-27
1072 1.61844 6.77473e-27
1073 1.75685 2.51085e-27
1074 3.48009 2.84844e-27
1075 8.84537 4.79238e-26
1076 0.386928 inf
1077 2.40886 1.19796e-27
1078 2.36185 2.08528e-27
1079 6.87236 1.21282e-26
1080 9.41829 6.12467e-26
1081 10.7876 6.86514e-27
1082 5.94257 2.08272e-26
1083 1.96667 1.288e-26
1084 2.02055 9.78965e-27
1085 7.05118 1.27581e-26
1086 2.64553 1.09484e-26
1087 8.97065 2.78561e-26
1088 2.00781 1.71081e-27
1089 3.68697 2.24166e-27
1090 0.858272 8.46371e-27
1091 1.38721 6.6559e-27
1092 3.9635 3.6612e-27
1093 552.712 0
1094 4.4163 2.41392e-27
1095 0.737348 7.5221e-27
1096 612.335 2.48936e-28
1097 239.297 2.59236e-27
1098 378.98 1.71171e-28
1099 221.354 2.72479e-27
1100 437.468 2.59212e-27
1101 4.34399 1.19703e-27
1102 551.611 7.08409e-28
1103 4.8858 2.64414e-26
1104 0.895668 7.95046e-27
1105 3.21556 5.36689e-27
1106 1.61035 2.51926e-27
1107 3.83529 4.41328e-27
1108 2.4215 1.24229e-26
1109 1.23752 6.94455e-26
1110 14.88 1.35426e-26
1111 55.6969 3.89657e-26
1112 6.53448 4.8455e-27
1113 3.3278 5.47257e-27
1114 4.94388 2.08031e-26
1115 33.8811 9.66489e-28
1116 1.23745 2.85684e-27
1117 0.97144 0
1118 1.29642 1.33261e-26
1119 3.1798 5.55061e-28
1120 7.40043 1.91052e-26
1121 7.09616 1.05291e-26
1122 3.68881 0
1123 10.2759 2.69317e-26
1124 4.69597 5.81383e-27
1125 1.69345 1.71449e-25
1126 0.939116 0
1127 5.39254 6.94149e-26
1128 261.579 7.21302e-28
1129 1.57201 1.33298e-26
1130 1.2469 1.06763e-27
1131 2.54608 2.58197e-27
1132 3.92245 1.98998e-27
1133 2.43595 2.30939e-27
1134 3.23529 1.32996e-26
1135 2.62922 8.95589e-28
1136 1.49555 2.74222e-26
1137 1.70537 1.24827e-27
1138 1.85542 3.97233e-27
1139 3.65491 7.91969e-28
1140 8.41078 4.97083e-27
1141 1.86206 6.90379e-27
1142 1.50952 9.14641e-28
1143 3.44933 1.2973e-26
1144 1.48587 6.19297e-28
1145 4.14279 8.59476e-28
1146 6.70436 1.02746e-26
1147 1.39756 1.42267e-27
1148 1.63871 4.69326e-27
1149 1.71394 0
1150 2.63147 4.77789e-27
1151 14.614 2.66959e-25
1152 6.36223 1.12317e-26
1153 3.43568 0
1154 8.82933 1.23476e-25
1155 7.45664 7.81124e-27
1156 13.8437 3.67142e-26
1157 3.50005 2.88153e-27
1158 2.15442 1.30278e-27
1159 2.45794 1.03281e-26
1160 4.57199 0
1161 5.57509 9.29758e-27
1162 3.0562 1.43151e-27
1163 2.06753 4.37934e-27
1164 9.95123 1.16819e-26
1165 1.78323 0
1166 1283.86 1.30069e-27
1167 3.09932 1.30675e-26
1168 0.8658 0
1169 1.07801 0
1170 4.96453 5.85824e-27
1171 2.20898 2.19828e-27
1172 2.87248 6.98317e-28
1173 2.05671 1.43418e-26
1174 4.48203 4.7349e-27
1175 2.37768 3.68272e-27
1176 1.00155 1.14729e-27
1177 1.91272 3.65127e-27
1178 1.87142 6.71705e-28
1179 2.08453 5.20911e-27
1180 4.53907 4.95876e-27
1181 1.49874 2.075e-27
1182 4.59706 1.64659e-26
1183 1.35067 1.76874e-27
1184 1.80027 0
1185 1.1123 0
1186 2.78819 7.18507e-27
1187 2.08852 2.48575e-26
1188 4.3866 0
1189 0.392612 8.37571e-27
1190 7.27205 7.41157e-27
1191 50.593 8.76679e-26
1192 2.34772 2.63818e-27
1193 4.68739 2.71736e-27
1194 326.096 2.32866e-28
1195 3.85403 1.62845e-26
1196 6.58088 3.55755e-27
1197 6.5002 8.20992e-27
1198 1244.24 1.20625e-27
1199 2.87043 3.31489e-26
1200 2.20978 3.01032e-27
1201 7.23334 2.66554e-27
1202 4.74165 0
1203 0.9473 1.19792e-26
1204 0.877324 2.79983e-26
1205 3.4431 2.52421e-27
1206 6.14016 3.39785e-27
1207 3.39446 1.69385e-26
1208 8.68834 8.55075e-27
1209 0.86832 1.22922e-26
1210 30.7975 0
1211 3.7234 6.91296e-27
1212 3.58453 9.57345e-27
1213 508.321 8.36881e-28
1214 19.2823 2.84615e-26
1215 5.82408 1.56778e-26
1216 3.77931 2.16851e-26
1217 5.36741 2.59989e-26
1218 5.02294 1.27484e-27
1219 1.64365 8.1936e-27
1220 3.17202 4.49664e-27
1221 336.193 5.61638e-28
1222 0.964144 8.71967e-27
1223 3.23251 9.62792e-27
1224 1.40393 1.06111e-27
1225 1.268 9.92655e-27
1226 2.31054 0
1227 20.805 5.79723e-26
1228 1.43604 4.52693e-28
1229 1.29288 4.59002e-27
1230 1.75703 2.81778e-27
1231 4.1952 9.00273e-27
1232 1.01959 6.65682e-26
1233 7.04471 6.74007e-28
1234 1.63934 0
1235 443.593 7.48485e-28
1236 5.85933 1.29996e-26
1237 2.45344 1.07502e-26
1238 9.02903 4.18495e-27
1239 4.82078 1.55623e-27
1240 1.40538 1.07538e-26
1241 1.66272 1.91498e-26
1242 1.97106 3.03145e-27
1243 4.54387 3.2984e-27
1244 2.88162 9.07129e-27
1245 405.588 4.65327e-27
1246 6.13928 5.45995e-27
1247 18.0726 7.864e-28
1248 35.6296 7.43861e-28
1249 416.423 2.69659e-27
1250 429.975 3.52606e-28
1251 496.642 1.60669e-28
1252 53.1065 4.15361e-28
1253 296.587 1.07535e-28
1254 536.718 5.27414e-28
1255 65.5108 7.2874e-28
1256 6.40061 0
1257 1.84585 4.38191e-27
1258 0.235022 2.41756e-26
1259 124.592 1.55495e-27
1260 5.26121 8.78019e-28
1261 6.02037 1.75336e-26
1262 1.45597 3.67818e-26
1263 1.94174 2.03993e-26
1264 4.01486 6.46112e-28
1265 1.31125 4.84517e-27
1266 2.13216 5.30241e-27
1267 1.99086 2.65844e-27
1268 5.34479 1.45325e-26
1269 3.71424 1.66723e-26
1270 7.10734 5.9837e-28
1271 2.93024 3.39007e-26
1272 2.37415 0
1273 4.51412 7.13491e-27
1274 671.632 2.79063e-28
1275 38.742 5.83425e-26
1276 1.47195 2.15516e-27
1277 33.4631 8.04872e-28
1278 14.3885 nan
1279 1.20156 1.3341e-26
1280 4.19082 9.29244e-27
1281 2.5245 1.85887e-27
1282 5.43115 1.11314e-26
1283 0.286576 inf
1284 1.65782 3.44736e-27
1285 1.26913 6.23037e-27
1286 1.87552 3.0272e-27
1287 3.73253 6.04402e-27
1288 4.20993 4.82657e-27
1289 5.72355 1.07597e-26
1290 1.38442 1.0583e-26
1291 580.509 2.52774e-28
1292 0.886332 9.91609e-27
1293 415.936 1.03788e-27
1294 0.851976 1.6937e-26
1295 1.39246 2.32825e-27
1296 8.55974 4.59369e-27
1297 1.21682 6.17427e-26
1298 4.03795 1.43583e-25
1299 1.69282 9.87791e-27
1300 2.11689 2.25937e-26
0 2.8026e-45 -inf
