#  etmYconvsweep.dat       10-Dec-2002 20:19     3k  
#  
4000.000000 0.000105 0.000200 -0.736385 0.100000 15
3661.925293 0.000109 0.000200 0.402425 0.100000 15
3352.424316 0.000129 0.000200 1.318063 0.100000 15
3069.082031 0.000101 0.000200 1.818934 0.100000 15
2809.687256 0.000205 0.000200 2.590168 0.100000 15
2572.216309 0.000259 0.000200 3.245035 0.100000 15
2354.816162 0.000251 0.000200 3.387674 0.100000 15
2155.790283 0.000313 0.000200 3.911312 0.100000 15
1973.585693 0.000384 0.000200 4.444034 0.100000 15
1806.780884 0.000434 0.000200 4.878628 0.100000 15
1654.074219 0.000624 0.000200 5.102734 0.100000 15
1514.274048 0.000749 0.000200 5.339933 0.100000 15
1386.289673 0.000866 0.000200 5.553355 0.100000 15
1269.122314 0.001176 0.000200 5.695000 0.100000 15
1161.857788 0.001386 0.000200 5.889320 0.100000 15
1063.659180 0.002037 0.000200 6.015498 0.100000 15
973.760132 0.002555 0.000200 6.147945 0.100000 15
891.459229 0.003486 0.000200 6.326580 0.100000 15
816.114319 0.004544 0.000200 6.457950 0.100000 15
747.137451 0.006511 0.000200 6.611918 0.100000 15
683.990356 0.008803 0.000200 6.745987 0.100000 15
626.180420 0.012601 0.010000 6.879959 0.050000 15
573.256531 0.015431 0.010000 7.022545 0.050000 15
524.805664 0.023055 0.010000 7.235507 0.050000 15
480.449768 0.028620 0.010000 7.420912 0.050000 15
439.842804 0.040586 0.010000 7.618709 0.050000 15
402.667877 0.047571 0.010000 7.775301 0.050000 15
368.634949 0.064895 0.010000 7.971237 0.050000 15
337.478424 0.080599 0.010000 7.889519 0.050000 15
308.955200 0.107514 0.010000 8.206673 0.050000 15
282.842712 0.116393 0.010000 8.298910 0.050000 15
258.937225 0.164891 0.010000 8.509357 0.050000 15
237.052200 0.201610 0.010000 8.650501 0.050000 15
217.016876 0.240710 0.010000 8.753280 0.050000 15
198.674896 0.326846 0.010000 8.966077 0.050000 15
181.883163 0.384594 0.010000 9.074168 0.050000 15
166.510635 0.475887 0.010000 9.222980 0.050000 15
152.437393 0.599965 0.010000 9.376066 0.050000 15
139.553589 0.722237 0.010000 9.507542 0.050000 15
127.758705 0.905022 0.010000 9.695576 0.050000 15
116.960709 1.068105 0.010000 9.760690 0.050000 15
107.075348 1.393872 0.300000 10.033476 0.020000 15
98.025482 1.681824 0.300000 10.176942 0.020000 15
89.740501 2.080662 0.300000 10.475717 0.020000 15
82.155754 2.515834 0.300000 10.731418 0.020000 15
75.212059 2.856896 0.300000 11.046780 0.020000 15
68.855240 3.304724 0.300000 11.317999 0.020000 15
63.035686 3.192945 0.300000 11.690009 0.020000 15
57.707996 3.300257 0.300000 11.966668 0.020000 15
52.830593 3.104660 0.300000 12.229300 0.020000 15
48.365425 2.953199 0.300000 12.467003 0.020000 15
44.277641 2.745144 0.300000 12.674612 0.020000 15
40.535355 2.570171 0.300000 12.873922 0.020000 15
37.109364 2.384462 0.300000 13.062065 0.020000 15
33.972931 2.194743 0.300000 13.230680 0.020000 15
31.101583 2.025015 0.300000 13.411191 0.020000 15
28.472919 1.834690 0.300000 13.571897 0.020000 15
26.066427 1.636617 0.300000 13.739345 0.020000 15
23.863327 1.502728 0.300000 13.882885 0.020000 15
21.846432 1.278286 0.300000 14.012564 0.020000 15
20.000000 1.153690 0.300000 14.208426 0.020000 15
